…
``` r
laquinta_nc <- laquinta %>%
  filter(state == "NC")
nrow(laquinta_nc)
```

    ## [1] 12

``` r
dn_lq_nc <- full_join(dennys_nc, laquinta_nc, by = "state")
dn_lq_nc
```

    ## # A tibble: 336 × 11
    ##    address.x     city.x state zip.x longi…¹ latit…² addre…³ city.y zip.y longi…⁴
    ##    <chr>         <chr>  <chr> <chr>   <dbl>   <dbl> <chr>   <chr>  <chr>   <dbl>
    ##  1 1 Regent Par… Ashev… NC    28806   -82.6    35.6 165 Hw… "\nBo… 28607   -81.7
    ##  2 1 Regent Par… Ashev… NC    28806   -82.6    35.6 3127 S… "\nCh… 28208   -80.9
    ##  3 1 Regent Par… Ashev… NC    28806   -82.6    35.6 4900 S… "\nCh… 28217   -80.9
    ##  4 1 Regent Par… Ashev… NC    28806   -82.6    35.6 4414 D… "\nDu… 27707   -79.0
    ##  5 1 Regent Par… Ashev… NC    28806   -82.6    35.6 1910 W… "\nDu… 27713   -78.9
    ##  6 1 Regent Par… Ashev… NC    28806   -82.6    35.6 1201 L… "\nGr… 27407   -79.9
    ##  7 1 Regent Par… Ashev… NC    28806   -82.6    35.6 1607 F… "\nCo… 28613   -81.3
    ##  8 1 Regent Par… Ashev… NC    28806   -82.6    35.6 191 Cr… "\nCa… 27518   -78.8
    ##  9 1 Regent Par… Ashev… NC    28806   -82.6    35.6 2211 S… "\nRa… 27612   -78.7
    ## 10 1 Regent Par… Ashev… NC    28806   -82.6    35.6 1001 A… "\nMo… 27560   -78.8
    ## # … with 326 more rows, 1 more variable: latitude.y <dbl>, and abbreviated
    ## #   variable names ¹​longitude.x, ²​latitude.x, ³​address.y, ⁴​longitude.y
…
``` r
laquinta_tx <- laquinta %>%
  filter(state == "TX")
nrow(laquinta_tx)
```

    ## [1] 237

``` r
dn_lq_tx <- full_join(dennys_tx, laquinta_tx, by = "state")
dn_lq_tx
```

    ## # A tibble: 47,400 × 11
    ##    address.x     city.x state zip.x longi…¹ latit…² addre…³ city.y zip.y longi…⁴
    ##    <chr>         <chr>  <chr> <chr>   <dbl>   <dbl> <chr>   <chr>  <chr>   <dbl>
    ##  1 120 East I-20 Abile… TX    79601   -99.6    32.4 3018 C… "\nAb… 79606   -99.8
    ##  2 120 East I-20 Abile… TX    79601   -99.6    32.4 3501 W… "\nAb… 79601   -99.7
    ##  3 120 East I-20 Abile… TX    79601   -99.6    32.4 14925 … "\nAd… 75254   -96.8
    ##  4 120 East I-20 Abile… TX    79601   -99.6    32.4 909 Ea… "\nAl… 78516   -98.1
    ##  5 120 East I-20 Abile… TX    79601   -99.6    32.4 2400 E… "\nAl… 78332   -98.0
    ##  6 120 East I-20 Abile… TX    79601   -99.6    32.4 1220 N… "\nAl… 75013   -96.7
    ##  7 120 East I-20 Abile… TX    79601   -99.6    32.4 1165 H… "\nAl… 76009   -97.2
    ##  8 120 East I-20 Abile… TX    79601   -99.6    32.4 880 So… "\nAl… 77511   -95.2
    ##  9 120 East I-20 Abile… TX    79601   -99.6    32.4 1708 I… "\nAm… 79103  -102. 
    ## 10 120 East I-20 Abile… TX    79601   -99.6    32.4 9305 E… "\nAm… 79118  -102. 
    ## # … with 47,390 more rows, 1 more variable: latitude.y <dbl>, and abbreviated
    ## #   variable names ¹​longitude.x, ²​latitude.x, ³​address.y, ⁴​longitude.y
…
``` r
laquinta_ms <- laquinta %>%
  filter(state == "MS")
nrow(laquinta_ms)
```

    ## [1] 12

``` r
dn_lq_ms <- full_join(dennys_ms, laquinta_ms, by = "state")
dn_lq_ms
```

    ## # A tibble: 60 × 11
    ##    address.x     city.x state zip.x longi…¹ latit…² addre…³ city.y zip.y longi…⁴
    ##    <chr>         <chr>  <chr> <chr>   <dbl>   <dbl> <chr>   <chr>  <chr>   <dbl>
    ##  1 1839 Highway… Green… MS    38701   -91.0    33.4 957 Ce… "\nBi… 39532   -88.9
    ##  2 1839 Highway… Green… MS    38701   -91.0    33.4 215 Da… "\nBr… 39042   -90.0
    ##  3 1839 Highway… Green… MS    38701   -91.0    33.4 152 So… "\nCa… 39046   -90.1
    ##  4 1839 Highway… Green… MS    38701   -91.0    33.4 109 Lu… "\nHa… 39401   -89.3
    ##  5 1839 Highway… Green… MS    38701   -91.0    33.4 721 So… "\nHo… 38637   -90.0
    ##  6 1839 Highway… Green… MS    38701   -91.0    33.4 501 So… "\nPe… 39208   -90.1
    ##  7 1839 Highway… Green… MS    38701   -91.0    33.4 593 E.… "\nJa… 39206   -90.1
    ##  8 1839 Highway… Green… MS    38701   -91.0    33.4 1400 R… "\nMe… 39301   -88.7
    ##  9 1839 Highway… Green… MS    38701   -91.0    33.4 7001 H… "\nMo… 39563   -88.5
    ## 10 1839 Highway… Green… MS    38701   -91.0    33.4 982 Hi… "\nSt… 39759   -88.8
    ## # … with 50 more rows, 1 more variable: latitude.y <dbl>, and abbreviated
    ## #   variable names ¹​longitude.x, ²​latitude.x, ³​address.y, ⁴​longitude.y
…
